…
Check how many country-year observations you have. This code will show
what countries have more than 1 country year observation, but notice it
does NOT save over the dataframe. It shows that there are several
country-year observations with more than one nationalist party.

``` r
mpds1 %>% group_by(countryname, date) %>% 
   filter(n()>1)
```

    ## # A tibble: 61 × 15
    ## # Groups:   countryname, date [27]
    ##    countryname  date country party per601 per501 per608 absseat totseats
    ##    <chr>       <dbl>   <dbl> <dbl>  <dbl>  <dbl>  <dbl>   <dbl>    <dbl>
    ##  1 Austria      2006      42 42420  0      15.1   10.2       21      183
    ##  2 Austria      2006      42 42710  3.58    3.23   4.48       7      183
    ##  3 Austria      2008      42 42420  1.30    4.33   5.84      34      183
    ##  4 Austria      2008      42 42710  0.291   4.07   5.23      21      183
    ##  5 Belgium      2014      21 21710  5.07    3.10   3.60       1      150
    ##  6 Belgium      2014      21 21917  7.47    1.31   5.64       3      150
    ##  7 Croatia      2020      81 81711  6.08    1.97   0         66      151
    ##  8 Croatia      2020      81 81714  6.62    4.30   0         16      151
    ##  9 Cyprus       2016      55 55711  2.96    0      0         18       56
    ## 10 Cyprus       2016      55 55720 16.3     0      0          2       56
    ## # ℹ 51 more rows
    ## # ℹ 6 more variables: eumember <dbl>, parfam <dbl>, seat_share <dbl>,
    ## #   per601_size <dbl>, per608_size <dbl>, per501_size <dbl>
…
